led/blinky/wave.vcd
$version Generated by VerilatedVcd $end
$timescale 1ps $end
 $scope module TOP $end
  $var wire 1 # i_clk $end
  $var wire 1 $ i_arst $end
  $var wire 1 % i_en $end
  $var wire 1 & o_led $end
  $scope module blinky $end
   $var wire 32 ( DIVIDER [31:0] $end
   $var wire 1 # i_clk $end
   $var wire 1 $ i_arst $end
   $var wire 1 % i_en $end
   $var wire 1 & o_led $end
   $var wire 4 ' counter [3:0] $end
   $var wire 4 ) divider [3:0] $end
  $upscope $end
 $upscope $end
$enddefinitions $end


#0
0#
0$
0%
0&
b0000 '
b00000000000000000000000000001010 (
b1010 )
#1
1#
1$
#2
0#
#3
1#
0$
1%
b0001 '
#4
0#
#5
1#
b0010 '
#6
0#
#7
1#
b0011 '
#8
0#
#9
1#
b0100 '
#10
0#
#11
1#
b0101 '
#12
0#
#13
1#
b0110 '
#14
0#
#15
1#
b0111 '
#16
0#
#17
1#
b1000 '
#18
0#
#19
1#
b1001 '
#20
0#
#21
1#
1&
b0000 '
#22
0#
#23
1#
b0001 '
#24
0#
#25
1#
b0010 '
#26
0#
#27
1#
b0011 '
#28
0#
#29
1#
b0100 '
#30
0#
#31
1#
b0101 '
#32
0#
#33
1#
b0110 '
#34
0#
#35
1#
b0111 '
#36
0#
#37
1#
b1000 '
#38
0#
#39
1#
b1001 '
#40
0#
#41
1#
0&
b0000 '
#42
0#
#43
1#
b0001 '
#44
0#
#45
1#
b0010 '
#46
0#
#47
1#
b0011 '
#48
0#
#49
1#
b0100 '
#50
0#
#51
1#
b0101 '
#52
0#
#53
1#
b0110 '
#54
0#
#55
1#
b0111 '
#56
0#
#57
1#
b1000 '
#58
0#
#59
1#
b1001 '
#60
0#
#61
1#
1&
b0000 '
#62
0#
#63
1#
b0001 '
#64
0#
#65
1#
b0010 '
#66
0#
#67
1#
b0011 '
#68
0#
#69
1#
b0100 '
#70
0#
#71
1#
b0101 '
#72
0#
#73
1#
b0110 '
#74
0#
#75
1#
b0111 '
#76
0#
#77
1#
b1000 '
#78
0#
#79
1#
b1001 '
#80
0#
#81
1#
0&
b0000 '
#82
0#
#83
1#
b0001 '
#84
0#
#85
1#
b0010 '
#86
0#
#87
1#
b0011 '
#88
0#
#89
1#
b0100 '
#90
0#
#91
1#
b0101 '
#92
0#
#93
1#
b0110 '
#94
0#
#95
1#
b0111 '
#96
0#
#97
1#
b1000 '
#98
0#
#99
1#
b1001 '
#100
0#
#101
1#
1&
b0000 '
#102
0#
#103
1#
b0001 '
#104
0#
#105
1#
b0010 '
#106
0#
#107
1#
b0011 '
#108
0#
#109
1#
b0100 '
#110
0#
#111
1#
b0101 '
#112
0#
#113
1#
b0110 '
#114
0#
#115
1#
b0111 '
#116
0#
#117
1#
b1000 '
#118
0#
#119
1#
b1001 '
#120
0#
#121
1#
0&
b0000 '
#122
0#
#123
1#
b0001 '
#124
0#
#125
1#
b0010 '
#126
0#
#127
1#
b0011 '
#128
0#
#129
1#
b0100 '
#130
0#
#131
1#
b0101 '
#132
0#
#133
1#
b0110 '
#134
0#
#135
1#
b0111 '
#136
0#
#137
1#
b1000 '
#138
0#
#139
1#
b1001 '
#140
0#
#141
1#
1&
b0000 '
